hw03-01
…
head(spam)

  crl.tot dollar  bang money n000 make yesno
1     278  0.000 0.778  0.00 0.00 0.00     y
2    1028  0.180 0.372  0.43 0.43 0.21     y
3    2259  0.184 0.276  0.06 1.16 0.06     y
4     191  0.000 0.137  0.00 0.00 0.00     y
5     191  0.000 0.135  0.00 0.00 0.00     y
6      54  0.000 0.000  0.00 0.00 0.00     y

#Properties of the data
as_tibble(spam, rownames = "yesno")

# A tibble: 4,601 × 8
   yesno crl.tot dollar  bang money  n000  make yesno
   <chr>   <int>  <dbl> <dbl> <dbl> <dbl> <dbl> <chr>
 1 1         278  0     0.778  0     0     0    y    
 2 2        1028  0.18  0.372  0.43  0.43  0.21 y    
 3 3        2259  0.184 0.276  0.06  1.16  0.06 y    
 4 4         191  0     0.137  0     0     0    y    
 5 5         191  0     0.135  0     0     0    y    
 6 6          54  0     0      0     0     0    y    
 7 7         112  0.054 0.164  0     0     0    y    
 8 8          49  0     0      0     0     0    y    
 9 9        1257  0.203 0.181  0.15  0     0.15 y    
10 10        749  0.081 0.244  0     0.19  0.06 y    
# ℹ 4,591 more rows
…
spam_train_dummy <- as_tibble(class2ind(spam_train$yesno)) |> 
  mutate(across(everything(), as.factor)) |>
  add_column(dollar = spam_train$dollar)
spam_train_dummy

# A tibble: 3,682 × 3
   n     y     dollar
   <fct> <fct>  <dbl>
 1 0     1      0    
 2 0     1      0.18 
 3 0     1      0.184
 4 0     1      0    
 5 0     1      0    
 6 0     1      0    
 7 0     1      0.054
 8 0     1      0    
 9 0     1      0.081
10 0     1      0    
# ℹ 3,672 more rows
…
